<svg version="1.1"
     baseProfile="full"
     xmlns="http://www.w3.org/2000/svg">

	  <path fill="#5fb727" d="M30 60c16.6 0 30-13.4 30-30S46.6 0 30 0 0 13.4 0 30s13.4 30 30 30z"></path><path fill="#fff" d="M33.3 27h17.1v5.3H33.3v17.2H28V32.3H10.9V27H28V9.9h5.3V27z"></path>

</svg>
