[
	{
		"name": "Qualité",
		"description": "Approuvée par Santé Canada, la formation est donnée par des enseignants pratiquant la médecine au Nord-du-Québec, permettant d’arrimer la théorie et la pratique.",
		"image": "https://monplus.ca/static/icons/qualite.svg"
	},
	{
		"name": " Cours pratiques",
		"description": "On croit que les mises en situation et ateliers sont essentiels à l’acquisition et au renforcement des apprentissages. On apprend en le faisant!",
		"image": "https://monplus.ca/static/icons/mise-en-pratique.svg"
	},
	{
		"name": "Formation",
		"description": "160 heures de formation enrichie, mise à jour selon les nouvelles pratiques, permettant une préparation adéquate à l’exercice en rôle élargi.",
		"image": "https://monplus.ca/static/icons/formations.svg"
	},
	{
		"name": "Accompagnement",
		"description": "Toujours à l’écoute de tes besoins, on t’offre un support personnalisé avant et pendant ta formation, car on a ta réussite à coeur.",
		"image": "https://monplus.ca/static/icons/accompagnement.svg"
	},
	{
		"name": " Avantages",
		"description": "Formation reconnue qui se distingue par sa qualité exceptionnelle et le savoir-faire enseigné, offerte gratuitement aux infirmières MON+. Salaire offert durant la formation.",
		"image": "https://monplus.ca/static/icons/gros-plus.svg"
	}
]
